export SRC_DIR="/rdata/s01b_ls8_000/heppe/dynamic-rc-averaging"
export OUT_DIR="/rdata/s01b_ls8_000/heppe/dynamic-rc-results"
export IN_DIR="/rdata/s01b_ls8_000/heppe/dynamic-rc-data"

###### NEWEST

docker -H s876cn10:2375 run --name heppe-exp-rc-dynamic-normal -it -d -u $(id -u):$(id -g) -v ${SRC_DIR}:/data/src:ro -v ${OUT_DIR}:/data/out -v ${IN_DIR}:/data/in:ro s876cnsm:5000/heppe/dlplatform:0.5 /bin/bash -c 'cd /data/src && /usr/bin/python3 environments/shared_exp.py -r /data/in -o /data/out -m10000 -b1 -p1 --rabbitmq-host s876cn10 -e normal --nodes 16 --delta 0.01 0.1 0.25 0.5 -d CDOTA2'
docker run  -e constraint:s876node==s876cn03 -c 25 -m 150G --name heppe-exp-rc-dynamic-normal -it -d -u $(id -u):$(id -g) -v ${SRC_DIR}:/data/src:ro -v ${OUT_DIR}:/data/out -v ${IN_DIR}:/data/in:ro s876cnsm:5000/heppe/dlplatform:0.5 /bin/bash -c 'cd /data/src && /usr/bin/python3 environments/shared_exp.py -r /data/in -o /data/out -m1000 -b1 -p1 --rabbitmq-host s876cn03 -e rc --nodes 16 --delta 500 -d CDOTA2'

#####

docker run  -e constraint:s876node==s876cn03 -c 25 -m 150G --name heppe-exp-rc-dynamic-normal -it -d -u $(id -u):$(id -g) -v ${SRC_DIR}:/data/src:ro -v ${OUT_DIR}:/data/out -v ${IN_DIR}:/data/in:ro s876cnsm:5000/heppe/dlplatform:0.5 /bin/bash -c 'cd /data/src && /usr/bin/python3 environments/shared_exp.py -r /data/in -o /data/out -m1000 -b1 -p1 --rabbitmq-host s876cn03 -e rc --nodes 16 --delta 500 -d CSUSY'

docker -H s876cn10:2375 run --name heppe-exp-rc-dynamic-normal -it -d -u $(id -u):$(id -g) -v ${SRC_DIR}:/data/src:ro -v ${OUT_DIR}:/data/out -v ${IN_DIR}:/data/in:ro s876cnsm:5000/heppe/dlplatform:0.5 /bin/bash -c 'cd /data/src && /usr/bin/python3 environments/shared_exp.py -r /data/in -o /data/out -m1000 -b1 -p1 --rabbitmq-host s876cn10 -e rc --nodes 16 --delta 500 -d CCOVERTYPE'


# Normal CCOV 10

docker -H s876cn10:2375 run --name heppe-exp-rc-dynamic-normal -it -d -u $(id -u):$(id -g) -v ${SRC_DIR}:/data/src:ro -v ${OUT_DIR}:/data/out -v ${IN_DIR}:/data/in:ro s876cnsm:5000/heppe/dlplatform:0.5 /bin/bash -c 'cd /data/src && /usr/bin/python3 environments/shared_exp.py -r /data/in -o /data/out -m1000 -b1 -p1 --rabbitmq-host s876cn10 -e rc --nodes 16 --delta 250 500 750 1000 -d CCOVERTYPE'
docker -H s876cn10:2375 run --name heppe-exp-rc-dynamic-normal -it -d -u $(id -u):$(id -g) -v ${SRC_DIR}:/data/src:ro -v ${OUT_DIR}:/data/out -v ${IN_DIR}:/data/in:ro s876cnsm:5000/heppe/dlplatform:0.5 /bin/bash -c 'cd /data/src && /usr/bin/python3 environments/shared_exp.py -r /data/in -o /data/out -m1000 -b1 -p1 --rabbitmq-host s876cn10 -e normal --nodes 16 --delta 1 -d CSUSY'

docker run  -e constraint:s876node==s876cn03 -c 25 -m 150G --name heppe-exp-rc-dynamic-normal -it -d -u $(id -u):$(id -g) -v ${SRC_DIR}:/data/src:ro -v ${OUT_DIR}:/data/out -v ${IN_DIR}:/data/in:ro s876cnsm:5000/heppe/dlplatform:0.5 /bin/bash -c 'cd /data/src && /usr/bin/python3 environments/shared_exp.py -r /data/in -o /data/out -m1000 -b1 -p1 --rabbitmq-host s876cn03 -e rc --nodes 16 --delta 250 500 750 1000 -d CDOTA2'

#### DOCKER LOCAL #####

docker run -it -d --name heppe-test-1 -v /tmp/dynamic-rc:/data/out -v /home/lukas/data/dynamic-rc-data/:/data/in -v /home/lukas/workspace/dynamic-rc-averaging:/data/src dlplatforn:0.5 /bin/bash -c 'cd /data/src && /usr/bin/python3 experiments/shared_exp.py -r /data/in -o /data/out -m1000 -b1 -p1 --rabbitmq-host 192.168.178.64 -e normal --nodes 4 -d DOTA2'

docker10 run -it -d --name heppe-dataset-gen -u $(id -u):$(id -g) -v ${SRC_DIR}:/data/src:ro -v ${IN_DIR}:/data/in s876cnsm:5000/heppe/dlplatform:0.5 /usr/bin/python3 /data/src/src/dlplatform_extension/datasource/spatial_dataset.py


/home/lukas/venv/dlplatform/bin/python /home/lukas/workspace/dynamic-rc-averaging/experiments/time_variant_experiment.py --nodes 4 -p 1

### TIME VARIANT

# TODO: Add Limits and node
docker run -e constraint:s876node==s876cn07 -c 16 -m 150G -it -d -u $(id -u):$(id -g) -v ${SRC_DIR}:/data/src:ro -v ${OUT_DIR}:/data/out -v ${IN_DIR}:/data/in:ro --name heppe-dynamic-rc-time-variant s876cnsm:5000/heppe/dlplatform:0.5 /bin/bash -c 'cd /data/src && /usr/bin/python3 experiments/time_variant_experiment.py -r /data/in -o /data/out --nodes 16 -p 1 --drift-prob 0.005 -b 16 32 -p 1 --rabbitmq-host s876cn09'

# New with more combinations
docker run -e constraint:s876node==s876cn07 -c 16 -m 158G -it -d -u $(id -u):$(id -g) -v ${SRC_DIR}:/data/src:ro -v ${OUT_DIR}:/data/out -v ${IN_DIR}:/data/in:ro --name heppe-dynamic-rc-time-variant s876cnsm:5000/heppe/dlplatform:0.5 /bin/bash -c 'cd /data/src && /usr/bin/python3 experiments/time_variant_experiment.py -r /data/in -o /data/out -l4 -u6 --drift-prob 0.005 -b 1 16 32 -p 1 10 20 -m 10000 --rabbitmq-host s876cn09'

# MONDAY
docker10 run -it -d --name heppe-dynamic-rc-timevariant -u $(id -u):$(id -g) -v ${SRC_DIR}:/data/src:ro -v ${OUT_DIR}:/data/out -v ${IN_DIR}:/data/in:ro s876cnsm:5000/heppe/dlplatform:0.5 /bin/bash -c 'cd /data/src && /usr/bin/python3 experiments/time_variant_experiment.py -r /data/in -o /data/out -l4 -u5 --drift-prob 0.0005 -b 1 16 32 -p 1 10 -m 10000 --rabbitmq-host s876cn10'
docker10 run -it -d --name heppe-dynamic-rc-timevariant -u $(id -u):$(id -g) -v ${SRC_DIR}:/data/src:ro -v ${OUT_DIR}:/data/out -v ${IN_DIR}:/data/in:ro s876cnsm:5000/heppe/dlplatform:0.5 /bin/bash -c 'cd /data/src && /usr/bin/python3 experiments/time_variant_experiment.py -r /data/in -o /data/out -l4 -u5 --drift-prob 0.0005 -b 1 -p 1 10 -m 10000 --aggregation-scheme PRIVATE PUBLIC --rabbitmq-host s876cn10'



### SPATIAL
# -e constraint:s876node==s876cn07 -c 16 -m 150G
docker10 run -it -d -u $(id -u):$(id -g) -v ${SRC_DIR}:/data/src:ro -v ${OUT_DIR}:/data/out -v ${IN_DIR}:/data/in:ro --name heppe-dynamic-rc-spatial-variant s876cnsm:5000/heppe/dlplatform:0.5 /bin/bash -c 'cd /data/src && /usr/bin/python3 experiments/spatial_experiment.py -r /data/in -o /data/out -l4 -u5 -p 1 10 -b 1 16 32 -m 1500  -t 0.1 0.01 0.25 --rabbitmq-host s876cn10'

# nodes 32 and lower delta
docker run -e constraint:s876node==s876cn01 -c 16 -m 150G -it -d -u $(id -u):$(id -g) -v ${SRC_DIR}:/data/src:ro -v ${OUT_DIR}:/data/out -v ${IN_DIR}:/data/in:ro --name heppe-dynamic-rc-spatial-variant s876cnsm:5000/heppe/dlplatform:0.5 /bin/bash -c 'cd /data/src && /usr/bin/python3 experiments/spatial_experiment.py -r /data/in -o /data/out -l4 -u6 -p 1 10 -b 1 16 32 -m 1500 -t 0.1 --rabbitmq-host s876cn01'

docker run -e constraint:s876node==s876gn01 -c 13 -m 250G -it -d -u $(id -u):$(id -g) -v ${SRC_DIR}:/data/src:ro -v ${OUT_DIR}:/data/out -v ${IN_DIR}:/data/in:ro --name heppe-dynamic-rc-spatial-variant-nodes64 s876cnsm:5000/heppe/dlplatform:0.5 /bin/bash -c 'cd /data/src && /usr/bin/python3 experiments/spatial_experiment.py -r /data/in -o /data/out -l6 -u7 -p 1 10 -b 1 16 32 -m 1500 -t 0.1 --rabbitmq-host s876gn03'


# EQUAL
docker run -e constraint:s876node==s876cn03 -it -d -v ${IN_DIR}:/data/in -v ${OUT_DIR}:/data/out -v ${SRC_DIR}:/data/src -u $(id -u):$(id -g) -c 16 -m 150G --name heppe-dynamic-rc-equal s876cnsm:5000/heppe/dlplatform:0.5 /bin/bash -c 'cd /data/src && /usr/bin/python3 experiments/iid_experiment.py -r /data/in -o /data/out -l4 -u6 -p 1 10 -b 1 16 32 -m 1500 -t 0.1 --rabbitmq-host s876cn03'

# SP


# NEW RabbitMQ

docker run -e constraint:s876node==s876gn03 -it -d --name heppe-dynamic-rc-rabbitmq-gn03 -c 2 -m 50G -p 5672:5672 s876cnsm:5000/heppe/rabbitmq:3-management-custom
docker run -e constraint:s876node==s876cn03 -it -d --name heppe-dynamic-rc-rabbitmq-cn03 -c 2 -m 50G -p 5672:5672 s876cnsm:5000/heppe/rabbitmq:3-management-custom
docker run -e constraint:s876node==s876cn01 -it -d --name heppe-dynamic-rc-rabbitmq-cn01 -c 2 -m 50G -p 5672:5672 s876cnsm:5000/heppe/rabbitmq:3-management-custom
docker run -e constraint:s876node==s876cn09 -it -d --name heppe-dynamic-rc-rabbitmq-cn09 -c 2 -m 50G -p 5672:5672 s876cnsm:5000/heppe/rabbitmq:3-management-custom
docker run -e constraint:s876node==s876cn08 -it -d --name heppe-dynamic-rc-rabbitmq-cn08 -c 2 -m 50G -p 5672:5672 s876cnsm:5000/heppe/rabbitmq:3-management-custom


#### Monday evening

docker run -e constraint:s876node==s876gn01 -c 13 -m 250G -it -d -u $(id -u):$(id -g) -v ${SRC_DIR}:/data/src:ro -v ${OUT_DIR}:/data/out -v ${IN_DIR}:/data/in:ro --name heppe-dynamic-rc-spatial-n16 s876cnsm:5000/heppe/dlplatform:0.5 /bin/bash -c 'cd /data/src && /usr/bin/python3 experiments/spatial_experiment.py -r /data/in -o /data/out --nodes 16 -p 1 10 20 -t 0.01 0.1 0.25 1.0 --rabbitmq-host s876cn09'
docker run -e constraint:s876node==s876cn03 -it -d -v ${IN_DIR}:/data/in -v ${OUT_DIR}:/data/out -v ${SRC_DIR}:/data/src -u $(id -u):$(id -g) -c 16 -m 150G --name heppe-dynamic-rc-equal s876cnsm:5000/heppe/dlplatform:0.5 /bin/bash -c 'cd /data/src && /usr/bin/python3 experiments/iid_experiment.py -r /data/in -o /data/out --nodes 16 -p 1 10 20 -b 1 -m 1500 -t 0.01 0.1 1.0 --rabbitmq-host s876cn03'


# Reine configs
# Um Container kann ich mich später kümmern.

# SUSY
# susy, rc [equal, spatial]
-e rc --nodes 16 -p 1 10 20 -b 1 -m 1500 -t 1.0 10.0        -d SUSY
-e normal --nodes 16 -p 1 10 20 -b 1 -m 1500 -t 0.1 1.0     -d SUSY

# Normal
docker run -e constraint:s876node==s876cn01 -c 16 -m 250G -it -d -u $(id -u):$(id -g) -v ${SRC_DIR}:/data/src:ro -v ${OUT_DIR}:/data/out -v ${IN_DIR}:/data/in:ro --name heppe-dynamic-rc-iid-cn01 s876cnsm:5000/heppe/dlplatform:0.5  /bin/bash -c 'cd /data/src && /usr/bin/python3 experiments/iid_experiment.py -r /data/in -o /data/out -e normal --nodes 16 -p 1 10 20 -b 1 -m 1500 -t 0.1 1.0 -d SUSY --rabbitmq-host s876cn01'
docker run -e constraint:s876node==s876gn01 -c 13 -m 250G -it -d -u $(id -u):$(id -g) -v ${SRC_DIR}:/data/src:ro -v ${OUT_DIR}:/data/out -v ${IN_DIR}:/data/in:ro --name heppe-dynamic-rc-spatial-gn01 s876cnsm:5000/heppe/dlplatform:0.5  /bin/bash -c 'cd /data/src && /usr/bin/python3 experiments/spatial_experiment.py -r /data/in -o /data/out --aggregation-scheme PUBLIC -e normal --nodes 16 -p 1 10 20 -b 1 -m 1500 -t 0.1 0.5 1.0 5.0 -d SUSY --rabbitmq-host s876gn03'

# RC
docker run -e constraint:s876node==s876cn03 -c 16 -m 200G -it -d -u $(id -u):$(id -g) -v ${SRC_DIR}:/data/src:ro -v ${OUT_DIR}:/data/out -v ${IN_DIR}:/data/in:ro --name heppe-dynamic-rc-iid-cn03 s876cnsm:5000/heppe/dlplatform:0.5  /bin/bash -c 'cd /data/src && /usr/bin/python3 experiments/iid_experiment.py -r /data/in -o /data/out -e rc --nodes 16 -p 1 10 20 -b 1 -m 1500 -t 1.0 10.0 -d SUSY --rabbitmq-host s876cn03'
docker run -e constraint:s876node==s876cn07 -c 16 -m 250G -it -d -u $(id -u):$(id -g) -v ${SRC_DIR}:/data/src:ro -v ${OUT_DIR}:/data/out -v ${IN_DIR}:/data/in:ro --name heppe-dynamic-rc-spatial-rc-cn07 s876cnsm:5000/heppe/dlplatform:0.5  /bin/bash -c 'cd /data/src && /usr/bin/python3 experiments/spatial_experiment.py -r /data/in -o /data/out -e rc --nodes 16 -p 1 10 20 -b 1 -m 1500 -t 1.0 10.0 15.0 20.0 50.0 -d SUSY --aggregation-scheme PUBLIC --rabbitmq-host s876cn09'


docker10 run -it -d -u $(id -u):$(id -g) -v ${SRC_DIR}:/data/src:ro -v ${OUT_DIR}:/data/out -v ${IN_DIR}:/data/in:ro --name heppe-dynamic-rc-spatial-rc-private s876cnsm:5000/heppe/dlplatform:0.5  /bin/bash -c 'cd /data/src && /usr/bin/python3 experiments/spatial_experiment.py -r /data/in -o /data/out -e rc --nodes 16 -p 1 10 20 -b 1 -m 1500 -t 1.0 10.0 50.0 100.0 200.0 250.0 350.0 450.0 500.0 -d SUSY --aggregation-scheme PRIVATE --rabbitmq-host s876cn10'

# RC EQUAL PRIVATE LARGER DELTA
docker run -e constraint:s876node==s876cn03 -c 16 -m 200G -it -d -u $(id -u):$(id -g) -v ${SRC_DIR}:/data/src:ro -v ${OUT_DIR}:/data/out -v ${IN_DIR}:/data/in:ro --name heppe-dynamic-rc-iid-cn03 s876cnsm:5000/heppe/dlplatform:0.5  /bin/bash -c 'cd /data/src && /usr/bin/python3 experiments/iid_experiment.py -r /data/in -o /data/out -e rc --nodes 16 -p 1 10 20 -b 1 -m 1500 -t 1.0 10.0 100.0 500.0 --aggregation-scheme PRIVATE -d SUSY --rabbitmq-host s876cn03'

# SPATIAL CENTRALIZED [RC|NORMAL]
# TODO: SELECT -e constraint:s876node==s876cn07 -c 16 -m 250G
docker10 run -it -d -u $(id -u):$(id -g) -v ${SRC_DIR}:/data/src:ro -v ${OUT_DIR}:/data/out -v ${IN_DIR}:/data/in:ro --name heppe-dynamic-rc-spatial-centralized s876cnsm:5000/heppe/dlplatform:0.5  /bin/bash -c 'cd /data/src && /usr/bin/python3 experiments/spatial_experiment.py -r /data/in -o /data/out -e rc --nodes 16 -p 1 10 20 -b 1 -m 1500 -t 0.1 0.5 0.75 1.0 10.0 -d SUSY --aggregation-scheme CENTRALIZED --rabbitmq-host s876cn10'

# SPATIAL  Normal PRIVATE different deltas
docker run -e constraint:s876node==s876cn03 -c 16 -m 200G -it -d -u $(id -u):$(id -g) -v ${SRC_DIR}:/data/src:ro -v ${OUT_DIR}:/data/out -v ${IN_DIR}:/data/in:ro --name heppe-dynamic-rc-normal-private s876cnsm:5000/heppe/dlplatform:0.5  /bin/bash -c 'cd /data/src && /usr/bin/python3 experiments/spatial_experiment.py -r /data/in -o /data/out -e normal --nodes 16 -p 1 10 20 -b 1 -m 1500 -t 0.1 0.25 0.5 0.75 1.0 -d SUSY --aggregation-scheme PRIVATE --rabbitmq-host s876cn03'
# SPATIAL Normal PUBLIC larger deltas
docker run -e constraint:s876node==s876cn07 -c 16 -m 250G -it -d -u $(id -u):$(id -g) -v ${SRC_DIR}:/data/src:ro -v ${OUT_DIR}:/data/out -v ${IN_DIR}:/data/in:ro --name heppe-dynamic-rc-normal-public s876cnsm:5000/heppe/dlplatform:0.5  /bin/bash -c 'cd /data/src && /usr/bin/python3 experiments/spatial_experiment.py -r /data/in -o /data/out -e normal --nodes 16 -p 1 10 20 -b 1 -m 1500 -t 0.75 0.99 1.5 2.0 5.0 10.0 50.0 -d SUSY --aggregation-scheme PUBLIC --rabbitmq-host s876cn09'

#########################################################

# EQUAL
docker run -e constraint:s876node==s876cn03 -c 16 -m 200G -it -d -u $(id -u):$(id -g) -v ${SRC_DIR}:/data/src:ro -v ${OUT_DIR}:/data/out -v ${IN_DIR}:/data/in:ro --name heppe-dynamic-rc-iid-cn03 s876cnsm:5000/heppe/dlplatform:0.5  /bin/bash -c 'cd /data/src && /usr/bin/python3 experiments/iid_experiment.py -r /data/in -o /data/out -e rc --nodes 16 -p 1 10 20 -b 1 -m 1500 -t 1.0 10.0 25.0 50.0 75.0 --aggregation-scheme PRIVATE -d SUSY --rabbitmq-host s876cn03'

# -e constraint:s876node==s876cn03 -c 16 -m 200G
docker run -e constraint:s876node==s876cn07 -c 16 -m 250G -it -d -u $(id -u):$(id -g) -v ${SRC_DIR}:/data/src:ro -v ${OUT_DIR}:/data/out -v ${IN_DIR}:/data/in:ro --name heppe-dynamic-rc-iid-public s876cnsm:5000/heppe/dlplatform:0.5  /bin/bash -c 'cd /data/src && /usr/bin/python3 experiments/iid_experiment.py -r /data/in -o /data/out -e rc --nodes 16 -p 1 10 20 -b 1 -m 1500 -t 1.5 2.5 5.0 7.5 --aggregation-scheme PUBLIC -d SUSY --rabbitmq-host s876cn09'

# EQUAL normal

docker run -e constraint:s876node==s876gn01 -c 13 -m 250G -it -d -u $(id -u):$(id -g) -v ${SRC_DIR}:/data/src:ro -v ${OUT_DIR}:/data/out -v ${IN_DIR}:/data/in:ro --name heppe-dynamic-normal-public s876cnsm:5000/heppe/dlplatform:0.5  /bin/bash -c 'cd /data/src && /usr/bin/python3 experiments/iid_experiment.py -r /data/in -o /data/out -e normal --nodes 16 -p 1 10 20 -b 1 -m 1500 -t 0.01 0.1 0.25 0.5 0.75 1.0 -d SUSY --aggregation-scheme PUBLIC --rabbitmq-host s876gn03'
docker run -e constraint:s876node==s876cn01 -c 16 -m 250G -it -d -u $(id -u):$(id -g) -v ${SRC_DIR}:/data/src:ro -v ${OUT_DIR}:/data/out -v ${IN_DIR}:/data/in:ro --name heppe-dynamic-normal-private s876cnsm:5000/heppe/dlplatform:0.5  /bin/bash -c 'cd /data/src && /usr/bin/python3 experiments/iid_experiment.py -r /data/in -o /data/out -e normal --nodes 16 -p 1 10 20 -b 1 -m 1500 -t 0.01 0.05 0.1 0.25 0.5 0.75 1.0 -d SUSY --aggregation-scheme PRIVATE --rabbitmq-host s876cn01'



#######################################

# COVERTYPE
--nodes 16 -e rc -p 1 10 20 -b1 -m1500 -t 1.0 10.0          -d COVERTYPE
--nodes 16 -e normal -p 1 10 20 -b1 -m1500 -t 0.1 1.0       -d COVERTYPE

# Normal
docker run -e constraint:s876node==s876cn01 -c 16 -m 250G -it -d -u $(id -u):$(id -g) -v ${SRC_DIR}:/data/src:ro -v ${OUT_DIR}:/data/out -v ${IN_DIR}:/data/in:ro --name heppe-dynamic-normal-iid-cn01 s876cnsm:5000/heppe/dlplatform:0.5  /bin/bash -c 'cd /data/src && /usr/bin/python3 experiments/iid_experiment.py -r /data/in -o /data/out -e normal --nodes 16 -p 1 10 20 -b 1 -m 1500 -t 0.1 0.5 1.0 10.0 -d COVERTYPE --rabbitmq-host s876cn01'
docker run -e constraint:s876node==s876gn01 -c 13 -m 250G -it -d -u $(id -u):$(id -g) -v ${SRC_DIR}:/data/src:ro -v ${OUT_DIR}:/data/out -v ${IN_DIR}:/data/in:ro --name heppe-dynamic-normal-spatial-gn01 s876cnsm:5000/heppe/dlplatform:0.5  /bin/bash -c 'cd /data/src && /usr/bin/python3 experiments/spatial_experiment.py -r /data/in -o /data/out -e normal --nodes 16 -p 1 10 20 -b 1 -m 1500 -t 0.1 0.5 1.0 10.0 -d COVERTYPE --rabbitmq-host s876gn03'

# RC
docker run -e constraint:s876node==s876cn03 -c 16 -m 200G -it -d -u $(id -u):$(id -g) -v ${SRC_DIR}:/data/src:ro -v ${OUT_DIR}:/data/out -v ${IN_DIR}:/data/in:ro --name heppe-dynamic-rc-iid-cn03 s876cnsm:5000/heppe/dlplatform:0.5  /bin/bash -c 'cd /data/src && /usr/bin/python3 experiments/iid_experiment.py -r /data/in -o /data/out -e rc --nodes 16 -p 1 10 20 -b 1 -m 1500 -t 0.1 0.5 1.0 10.0 -d SUSY --rabbitmq-host s876cn03'
# 0.1 0.5  was added
docker run -e constraint:s876node==s876cn07 -c 16 -m 250G -it -d -u $(id -u):$(id -g) -v ${SRC_DIR}:/data/src:ro -v ${OUT_DIR}:/data/out -v ${IN_DIR}:/data/in:ro --name heppe-dynamic-rc-spatial-cn07 s876cnsm:5000/heppe/dlplatform:0.5  /bin/bash -c 'cd /data/src && /usr/bin/python3 experiments/spatial_experiment.py -r /data/in -o /data/out -e rc --nodes 16 -p 1 10 20 -b 1 -m 1500 -t 0.1 0.5 1.0 10.0 -d COVERTYPE --rabbitmq-host s876cn09'


#### MITTWOCH MORGEN ####

# Spatial Public RC
docker run -e constraint:s876node==s876cn07 -c 16 -m 250G -it -d -u $(id -u):$(id -g) -v ${SRC_DIR}:/data/src:ro -v ${OUT_DIR}:/data/out -v ${IN_DIR}:/data/in:ro --name heppe-dynamic-rc-spatial-public s876cnsm:5000/heppe/dlplatform:0.5  /bin/bash -c 'cd /data/src && /usr/bin/python3 experiments/spatial_experiment.py -r /data/in -o /data/out -e rc --nodes 16 -p 1 10 20 -b 1 -m 1500 -t 0.1 0.5 1.0 10.0 12.5 15.0 20.0 50.0 --aggregation-scheme PUBLIC -d COVERTYPE --rabbitmq-host s876cn09'
# Spatial Private RC
docker run -e constraint:s876node==s876cn03 -c 16 -m 200G -it -d -u $(id -u):$(id -g) -v ${SRC_DIR}:/data/src:ro -v ${OUT_DIR}:/data/out -v ${IN_DIR}:/data/in:ro --name heppe-dynamic-rc-spatial-private s876cnsm:5000/heppe/dlplatform:0.5  /bin/bash -c 'cd /data/src && /usr/bin/python3 experiments/spatial_experiment.py -r /data/in -o /data/out -e rc --nodes 16 -p 1 10 20 -b 1 -m 1500 -t 50.0 100.0 200.0 250.0 350.0 450.0 500.0 --aggregation-scheme PRIVATE -d COVERTYPE --rabbitmq-host s876cn03'

# Spatial public normal
docker run -e constraint:s876node==s876cn01 -c 16 -m 250G -it -d -u $(id -u):$(id -g) -v ${SRC_DIR}:/data/src:ro -v ${OUT_DIR}:/data/out -v ${IN_DIR}:/data/in:ro --name heppe-dynamic-normal-spatial-public s876cnsm:5000/heppe/dlplatform:0.5  /bin/bash -c 'cd /data/src && /usr/bin/python3 experiments/spatial_experiment.py -r /data/in -o /data/out -e normal --nodes 16 -p 1 10 20 -b 1 -m 1500 -t 1.5 2.5 5.0 7.5 --aggregation-scheme PUBLIC -d COVERTYPE --rabbitmq-host s876cn01'
# Spatial private normal
docker run -e constraint:s876node==s876gn01 -c 13 -m 250G -it -d -u $(id -u):$(id -g) -v ${SRC_DIR}:/data/src:ro -v ${OUT_DIR}:/data/out -v ${IN_DIR}:/data/in:ro --name heppe-dynamic-normal-spatial-private s876cnsm:5000/heppe/dlplatform:0.5  /bin/bash -c 'cd /data/src && /usr/bin/python3 experiments/spatial_experiment.py -r /data/in -o /data/out -e normal --nodes 16 -p 1 10 20 -b 1 -m 1500 -t 0.75 1.5 2.0 2.5 5.0 7.5 --aggregation-scheme PRIVATE -d COVERTYPE --rabbitmq-host s876gn03'


#### MITTWOCH MITTAG ####
# Equal Public rc  # -t 0.25 0.5 0.75 2.5 5.0 7.5 10.0
# -e constraint:s876node==s876cn03 -c 16 -m 200G
docker run -e constraint:s876node==s876cn07 -c 16 -m 200G -it -d -u $(id -u):$(id -g) -v ${SRC_DIR}:/data/src:ro -v ${OUT_DIR}:/data/out -v ${IN_DIR}:/data/in:ro --name heppe-dynamic-equal-public-rc s876cnsm:5000/heppe/dlplatform:0.5  /bin/bash -c 'cd /data/src && /usr/bin/python3 experiments/iid_experiment.py -r /data/in -o /data/out -e rc --nodes 16 -p 1 10 20 -b 1 -m 1500 -t 0.25 0.5 0.75 2.5 5.0 7.5 10.0 --aggregation-scheme PUBLIC -d COVERTYPE --rabbitmq-host s876cn09'

# Equal private rc
# -e constraint:s876node==s876cn03 -c 16 -m 200G + host
docker run -e constraint:s876node==s876cn01 -c 16 -m 250G -it -d -u $(id -u):$(id -g) -v ${SRC_DIR}:/data/src:ro -v ${OUT_DIR}:/data/out -v ${IN_DIR}:/data/in:ro --name heppe-dynamic-equal-private-rc s876cnsm:5000/heppe/dlplatform:0.5  /bin/bash -c 'cd /data/src && /usr/bin/python3 experiments/iid_experiment.py -r /data/in -o /data/out -e rc --nodes 16 -p 1 10 20 -b 1 -m 1500 -t 2.5 5.0 10.0 25.0 50.0 75.0 100.0 250.0 500.0 --aggregation-scheme PRIVATE -d COVERTYPE --rabbitmq-host s876cn01'

# Equal normal public
docker run -e constraint:s876node==s876gn01 -c 13 -m 250G -it -d -u $(id -u):$(id -g) -v ${SRC_DIR}:/data/src:ro -v ${OUT_DIR}:/data/out -v ${IN_DIR}:/data/in:ro --name heppe-dynamic-equal-public-normal s876cnsm:5000/heppe/dlplatform:0.5  /bin/bash -c 'cd /data/src && /usr/bin/python3 experiments/iid_experiment.py -r /data/in -o /data/out -e normal --nodes 16 -p 1 10 20 -b 1 -m 1500 -t 0.25 0.75 0.9 --aggregation-scheme PUBLIC -d COVERTYPE --rabbitmq-host s876gn03'

# !!!! Equal normal PRVIATE MISSING !!!!
docker run -e constraint:s876node==s876gn01 -c 13 -m 250G -it -d -u $(id -u):$(id -g) -v ${SRC_DIR}:/data/src:ro -v ${OUT_DIR}:/data/out -v ${IN_DIR}:/data/in:ro --name heppe-dynamic-equal-private-normal s876cnsm:5000/heppe/dlplatform:0.5  /bin/bash -c 'cd /data/src && /usr/bin/python3 experiments/iid_experiment.py -r /data/in -o /data/out -e normal --nodes 16 -p 1 10 20 -b 1 -m 1500 -t 0.2 0.25 0.05 0.4 --aggregation-scheme PRIVATE -d COVERTYPE --rabbitmq-host s876gn03'

docker run -e constraint:s876node==s876cn07 -c 16 -m 200G  -it -d -u $(id -u):$(id -g) -v ${SRC_DIR}:/data/src:ro -v ${OUT_DIR}:/data/out -v ${IN_DIR}:/data/in:ro --name heppe-dynamic-centralized-susy-normal-periodic s876cnsm:5000/heppe/dlplatform:0.5  /bin/bash -c 'cd /data/src && /usr/bin/python3 experiments/spatial_experiment.py -r /data/in -o /data/out -e normal --nodes 16 -p 1 10 20 -b 1 -m 1500 -t 0.0 -s periodic --aggregation-scheme CENTRALIZED -d SUSY --rabbitmq-host s876cn09'


######## Run lots of periods ########
docker run -e constraint:s876node==s876cn01 -c 16 -m 250G -it -d -u $(id -u):$(id -g) -v ${SRC_DIR}:/data/src:ro -v ${OUT_DIR}:/data/out -v ${IN_DIR}:/data/in:ro --name heppe-dynamic-private-susy-periodic-normal s876cnsm:5000/heppe/dlplatform:0.5  /bin/bash -c 'cd /data/src && /usr/bin/python3 experiments/iid_experiment.py -r /data/in -o /data/out --nodes 16 -p 1 2 3 4 5 6 7 8 9 10 20 50 100 200 -b 1 -m 1500 -t 0.0 -s periodic --aggregation-scheme PRIVATE -d SUSY -e normal --rabbitmq-host s876cn01'
docker run -e constraint:s876node==s876cn07 -c 16 -m 200G -it -d -u $(id -u):$(id -g) -v ${SRC_DIR}:/data/src:ro -v ${OUT_DIR}:/data/out -v ${IN_DIR}:/data/in:ro --name heppe-dynamic-private-susy-periodic-rc s876cnsm:5000/heppe/dlplatform:0.5  /bin/bash -c 'cd /data/src && /usr/bin/python3 experiments/iid_experiment.py -r /data/in -o /data/out --nodes 16 -p 1 2 3 4 5 6 7 8 9 10 20 50 100 200 -b 1 -m 1500 -t 0.0 -s periodic --aggregation-scheme PRIVATE -d SUSY -e rc --rabbitmq-host s876cn09'

docker run -e constraint:s876node==s876gn01 -c 13 -m 250G -it -d -u $(id -u):$(id -g) -v ${SRC_DIR}:/data/src:ro -v ${OUT_DIR}:/data/out -v ${IN_DIR}:/data/in:ro --name heppe-dynamic-private-covertype-periodic-normal s876cnsm:5000/heppe/dlplatform:0.5  /bin/bash -c 'cd /data/src && /usr/bin/python3 experiments/iid_experiment.py -r /data/in -o /data/out --nodes 16 -p 1 2 3 4 5 6 7 8 9 10 20 50 100 200 -b 1 -m 1500 -t 0.0 -s periodic --aggregation-scheme PRIVATE -d COVERTYPE -e normal --rabbitmq-host s876gn03'
docker run -e constraint:s876node==s876cn03 -c 16 -m 200G -it -d -u $(id -u):$(id -g) -v ${SRC_DIR}:/data/src:ro -v ${OUT_DIR}:/data/out -v ${IN_DIR}:/data/in:ro --name heppe-dynamic-private-covertype-periodic-rc s876cnsm:5000/heppe/dlplatform:0.5  /bin/bash -c 'cd /data/src && /usr/bin/python3 experiments/iid_experiment.py -r /data/in -o /data/out --nodes 16 -p 1 2 3 4 5 6 7 8 9 10 20 50 100 200 -b 1 -m 1500 -t 0.0 -s periodic --aggregation-scheme PRIVATE -d COVERTYPE -e rc --rabbitmq-host s876cn03'

######## Run lots of periods with batchsize 10 ########
docker run -e constraint:s876node==s876cn01 -c 16 -m 250G -it -d -u $(id -u):$(id -g) -v ${SRC_DIR}:/data/src:ro -v ${OUT_DIR}:/data/out -v ${IN_DIR}:/data/in:ro --name heppe-dynamic-private-susy-periodic-normal s876cnsm:5000/heppe/dlplatform:0.5  /bin/bash -c 'cd /data/src && /usr/bin/python3 experiments/iid_experiment.py -r /data/in -o /data/out --nodes 16 -p 1 2 3 4 5 6 7 8 9 10 20 50 100 200 -b 10 -m 1500 -t 0.0 -s periodic --aggregation-scheme PRIVATE -d SUSY -e normal --rabbitmq-host s876cn01'
docker run -e constraint:s876node==s876cn07 -c 16 -m 200G -it -d -u $(id -u):$(id -g) -v ${SRC_DIR}:/data/src:ro -v ${OUT_DIR}:/data/out -v ${IN_DIR}:/data/in:ro --name heppe-dynamic-private-susy-periodic-rc s876cnsm:5000/heppe/dlplatform:0.5  /bin/bash -c 'cd /data/src && /usr/bin/python3 experiments/iid_experiment.py -r /data/in -o /data/out --nodes 16 -p 1 2 3 4 5 6 7 8 9 10 20 50 100 200 -b 10 -m 1500 -t 0.0 -s periodic --aggregation-scheme PRIVATE -d SUSY -e rc --rabbitmq-host s876cn09'

docker run -e constraint:s876node==s876gn01 -c 13 -m 250G -it -d -u $(id -u):$(id -g) -v ${SRC_DIR}:/data/src:ro -v ${OUT_DIR}:/data/out -v ${IN_DIR}:/data/in:ro --name heppe-dynamic-private-covertype-periodic-normal s876cnsm:5000/heppe/dlplatform:0.5  /bin/bash -c 'cd /data/src && /usr/bin/python3 experiments/iid_experiment.py -r /data/in -o /data/out --nodes 16 -p 1 2 3 4 5 6 7 8 9 10 20 50 100 200 -b 10 -m 1500 -t 0.0 -s periodic --aggregation-scheme PRIVATE -d COVERTYPE -e normal --rabbitmq-host s876gn03'
docker run -e constraint:s876node==s876cn03 -c 16 -m 200G -it -d -u $(id -u):$(id -g) -v ${SRC_DIR}:/data/src:ro -v ${OUT_DIR}:/data/out -v ${IN_DIR}:/data/in:ro --name heppe-dynamic-private-covertype-periodic-rc s876cnsm:5000/heppe/dlplatform:0.5  /bin/bash -c 'cd /data/src && /usr/bin/python3 experiments/iid_experiment.py -r /data/in -o /data/out --nodes 16 -p 1 2 3 4 5 6 7 8 9 10 20 50 100 200 -b 10 -m 1500 -t 0.0 -s periodic --aggregation-scheme PRIVATE -d COVERTYPE -e rc --rabbitmq-host s876cn03'

######## Run lots of periods with batchsize 1, 10 and budgets of 1 and 10 ########
docker run -e constraint:s876node==s876cn01 -c 16 -m 250G -it -d -u $(id -u):$(id -g) -v ${SRC_DIR}:/data/src:ro -v ${OUT_DIR}:/data/out -v ${IN_DIR}:/data/in:ro --name heppe-dynamic-private-susy-periodic-normal s876cnsm:5000/heppe/dlplatform:0.5  /bin/bash -c 'cd /data/src && /usr/bin/python3 experiments/iid_experiment.py -r /data/in -o /data/out --nodes 16 -p 1 2 3 4 5 6 7 8 9 10 20 50 100 200 -b 1 10 -m 1500 --budget 1 10 -t 0.0 -s periodic --aggregation-scheme PRIVATE -d SUSY -e normal --rabbitmq-host s876cn01'
docker run -e constraint:s876node==s876cn07 -c 16 -m 200G -it -d -u $(id -u):$(id -g) -v ${SRC_DIR}:/data/src:ro -v ${OUT_DIR}:/data/out -v ${IN_DIR}:/data/in:ro --name heppe-dynamic-private-susy-periodic-rc s876cnsm:5000/heppe/dlplatform:0.5  /bin/bash -c 'cd /data/src && /usr/bin/python3 experiments/iid_experiment.py -r /data/in -o /data/out --nodes 16 -p 1 2 3 4 5 6 7 8 9 10 20 50 100 200     -b 1 10 -m 1500 --budget 1 10 -t 0.0 -s periodic --aggregation-scheme PRIVATE -d SUSY -e rc --rabbitmq-host s876cn09'

docker run -e constraint:s876node==s876gn01 -c 13 -m 250G -it -d -u $(id -u):$(id -g) -v ${SRC_DIR}:/data/src:ro -v ${OUT_DIR}:/data/out -v ${IN_DIR}:/data/in:ro --name heppe-dynamic-private-covertype-periodic-normal s876cnsm:5000/heppe/dlplatform:0.5  /bin/bash -c 'cd /data/src && /usr/bin/python3 experiments/iid_experiment.py -r /data/in -o /data/out --nodes 16 -p 1 2 3 4 5 6 7 8 9 10 20 50 100 200 -b 1 10 -m 1500 --budget 1 10 -t 0.0 -s periodic --aggregation-scheme PRIVATE -d COVERTYPE -e normal --rabbitmq-host s876gn03'
docker run -e constraint:s876node==s876cn03 -c 16 -m 200G -it -d -u $(id -u):$(id -g) -v ${SRC_DIR}:/data/src:ro -v ${OUT_DIR}:/data/out -v ${IN_DIR}:/data/in:ro --name heppe-dynamic-private-covertype-periodic-rc s876cnsm:5000/heppe/dlplatform:0.5  /bin/bash -c 'cd /data/src && /usr/bin/python3 experiments/iid_experiment.py -r /data/in -o /data/out --nodes 16 -p 1 2 3 4 5 6 7 8 9 10 20 50 100 200     -b 1 10 -m 1500 --budget 1 10 -t 0.0 -s periodic --aggregation-scheme PRIVATE -d COVERTYPE -e rc --rabbitmq-host s876cn03'


######## Dynamic p=20
docker run -e constraint:s876node==s876cn01 -c 16 -m 250G -it -d -u $(id -u):$(id -g) -v ${SRC_DIR}:/data/src:ro -v ${OUT_DIR}:/data/out -v ${IN_DIR}:/data/in:ro --name heppe-dynamic-private-susy-periodic-normal s876cnsm:5000/heppe/dlplatform:0.5  /bin/bash -c 'cd /data/src && /usr/bin/python3 experiments/iid_experiment.py -r /data/in -o /data/out --nodes 16 -p 20 -b 1 10 -m 1500 --budget 1 10 -t 0.1 0.5 1.0 10.0 50.0 -s dynamic --aggregation-scheme PRIVATE -d SUSY -e normal --rabbitmq-host s876cn01'
docker run -e constraint:s876node==s876cn07 -c 16 -m 200G -it -d -u $(id -u):$(id -g) -v ${SRC_DIR}:/data/src:ro -v ${OUT_DIR}:/data/out -v ${IN_DIR}:/data/in:ro --name heppe-dynamic-private-susy-periodic-rc s876cnsm:5000/heppe/dlplatform:0.5  /bin/bash -c 'cd /data/src && /usr/bin/python3 experiments/iid_experiment.py -r /data/in -o /data/out     --nodes 16 -p 20 -b 1 10 -m 1500 --budget 1 10 -t 10.0 50.0 100.0 500.0 -s dynamic --aggregation-scheme PRIVATE -d SUSY -e rc     --rabbitmq-host s876cn09'

docker run -e constraint:s876node==s876gn01 -c 13 -m 250G -it -d -u $(id -u):$(id -g) -v ${SRC_DIR}:/data/src:ro -v ${OUT_DIR}:/data/out -v ${IN_DIR}:/data/in:ro --name heppe-dynamic-private-covertype-periodic-normal s876cnsm:5000/heppe/dlplatform:0.5  /bin/bash -c 'cd /data/src && /usr/bin/python3 experiments/iid_experiment.py -r /data/in -o /data/out --nodes 16 -p 20 -b 1 10 -m 1500 --budget 1 10 -t 0.1 0.5 1.0 10.0 50.0 -s dynamic --aggregation-scheme PRIVATE -d COVERTYPE -e normal --rabbitmq-host s876gn03'
docker run -e constraint:s876node==s876cn03 -c 16 -m 200G -it -d -u $(id -u):$(id -g) -v ${SRC_DIR}:/data/src:ro -v ${OUT_DIR}:/data/out -v ${IN_DIR}:/data/in:ro --name heppe-dynamic-private-covertype-periodic-rc s876cnsm:5000/heppe/dlplatform:0.5  /bin/bash -c 'cd /data/src && /usr/bin/python3 experiments/iid_experiment.py -r /data/in -o /data/out     --nodes 16 -p 20 -b 1 10 -m 1500 --budget 1 10 -t 10.0 50.0 100.0 500.0 -s dynamic --aggregation-scheme PRIVATE -d COVERTYPE -e rc     --rabbitmq-host s876cn03'


######## Nosync different batch size and budgets
docker run -e constraint:s876node==s876cn01 -c 16 -m 250G -it -d -u $(id -u):$(id -g) -v ${SRC_DIR}:/data/src:ro -v ${OUT_DIR}:/data/out -v ${IN_DIR}:/data/in:ro --name heppe-dynamic-private-susy-periodic-normal s876cnsm:5000/heppe/dlplatform:0.5  /bin/bash -c 'cd /data/src && /usr/bin/python3 experiments/iid_experiment.py -r /data/in -o /data/out --nodes 16 -p 1 -b 1 10 -m 1500 --budget 1 10 -t 0.0 -s nosync --aggregation-scheme PRIVATE -d SUSY -e normal --rabbitmq-host s876cn01'
docker run -e constraint:s876node==s876cn07 -c 16 -m 200G -it -d -u $(id -u):$(id -g) -v ${SRC_DIR}:/data/src:ro -v ${OUT_DIR}:/data/out -v ${IN_DIR}:/data/in:ro --name heppe-dynamic-private-susy-periodic-rc s876cnsm:5000/heppe/dlplatform:0.5  /bin/bash -c 'cd /data/src && /usr/bin/python3 experiments/iid_experiment.py -r /data/in -o /data/out     --nodes 16 -p 1 -b 1 10 -m 1500 --budget 1 10 -t 0.0 -s nosync --aggregation-scheme PRIVATE -d SUSY -e rc     --rabbitmq-host s876cn09'

docker run -e constraint:s876node==s876gn01 -c 13 -m 250G -it -d -u $(id -u):$(id -g) -v ${SRC_DIR}:/data/src:ro -v ${OUT_DIR}:/data/out -v ${IN_DIR}:/data/in:ro --name heppe-dynamic-private-covertype-periodic-normal s876cnsm:5000/heppe/dlplatform:0.5  /bin/bash -c 'cd /data/src && /usr/bin/python3 experiments/iid_experiment.py -r /data/in -o /data/out --nodes 16 -p 1 -b 1 10 -m 1500 --budget 1 10 -t 0.0 -s nosync --aggregation-scheme PRIVATE -d COVERTYPE -e normal --rabbitmq-host s876gn03'
docker run -e constraint:s876node==s876cn03 -c 16 -m 200G -it -d -u $(id -u):$(id -g) -v ${SRC_DIR}:/data/src:ro -v ${OUT_DIR}:/data/out -v ${IN_DIR}:/data/in:ro --name heppe-dynamic-private-covertype-periodic-rc s876cnsm:5000/heppe/dlplatform:0.5  /bin/bash -c 'cd /data/src && /usr/bin/python3 experiments/iid_experiment.py -r /data/in -o /data/out     --nodes 16 -p 1 -b 1 10 -m 1500 --budget 1 10 -t 0.0 -s nosync --aggregation-scheme PRIVATE -d COVERTYPE -e rc     --rabbitmq-host s876cn03'

######## Dynamic p=20 larger stuff
docker run -e constraint:s876node==s876cn01 -c 16 -m 250G -it -d -u $(id -u):$(id -g) -v ${SRC_DIR}:/data/src:ro -v ${OUT_DIR}:/data/out -v ${IN_DIR}:/data/in:ro --name heppe-dynamic-private-susy-periodic-normal s876cnsm:5000/heppe/dlplatform:0.5  /bin/bash -c 'cd /data/src && /usr/bin/python3 experiments/iid_experiment.py -r /data/in -o /data/out --nodes 16 -p 20 -b 10 -m 1500 --budget 10 -t 0.1 0.5 1.0 10.0 50.0 75.0 100.0 200.0 250.0 350.0 450.0 500.0 -s dynamic --aggregation-scheme PRIVATE -d COVERTYPE -e normal --rabbitmq-host s876cn01'
docker run -e constraint:s876node==s876cn07 -c 16 -m 200G -it -d -u $(id -u):$(id -g) -v ${SRC_DIR}:/data/src:ro -v ${OUT_DIR}:/data/out -v ${IN_DIR}:/data/in:ro --name heppe-dynamic-private-susy-periodic-rc s876cnsm:5000/heppe/dlplatform:0.5  /bin/bash -c 'cd /data/src && /usr/bin/python3 experiments/iid_experiment.py -r /data/in -o /data/out     --nodes 16 -p 20 -b 10 -m 1500 --budget 10 -t 10.0 25.0 50.0 75.0 100.0 150.0 200.0 250.0 350.0 450.0 500.0 -s dynamic --aggregation-scheme PRIVATE -d COVERTYPE -e rc     --rabbitmq-host s876cn09'

docker run -e constraint:s876node==s876gn01 -c 13 -m 250G -it -d -u $(id -u):$(id -g) -v ${SRC_DIR}:/data/src:ro -v ${OUT_DIR}:/data/out -v ${IN_DIR}:/data/in:ro --name heppe-dynamic-private-covertype-periodic-normal s876cnsm:5000/heppe/dlplatform:0.5  /bin/bash -c 'cd /data/src && /usr/bin/python3 experiments/iid_experiment.py -r /data/in -o /data/out --nodes 16 -p 20 -b 10 -m 1500 --budget 10 -t 0.1 0.5 1.0 10.0 50.0 100.0 200.0 250.0 300.0 350.0 400.0 450.0 500.0 -s dynamic --aggregation-scheme PRIVATE -d COVERTYPE -e normal --rabbitmq-host s876gn03'
docker run -e constraint:s876node==s876cn03 -c 16 -m 200G -it -d -u $(id -u):$(id -g) -v ${SRC_DIR}:/data/src:ro -v ${OUT_DIR}:/data/out -v ${IN_DIR}:/data/in:ro --name heppe-dynamic-private-covertype-periodic-rc s876cnsm:5000/heppe/dlplatform:0.5  /bin/bash -c 'cd /data/src && /usr/bin/python3 experiments/iid_experiment.py -r /data/in -o /data/out     --nodes 16 -p 20 -b 10 -m 1500 --budget 10 -t 10.0 25.0 50.0 75.0 100.0 200.0 250.0 500.0 750.0 1000.0 1250.0 1500.0 -s dynamic --aggregation-scheme PRIVATE -d COVERTYPE -e rc     --rabbitmq-host s876cn03'

### DOTA2

#Dynamic
docker run -e constraint:s876node==s876cn01 -c 16 -m 250G -it -d -u $(id -u):$(id -g) -v ${SRC_DIR}:/data/src:ro -v ${OUT_DIR}:/data/out -v ${IN_DIR}:/data/in:ro --name heppe-dynamic-private-susy-periodic-normal s876cnsm:5000/heppe/dlplatform:0.5  /bin/bash -c 'cd /data/src && /usr/bin/python3 experiments/iid_experiment.py -r /data/in -o /data/out --nodes 16 -p 20 -b 10 -m 1500 --budget 10 -t 0.1 0.5 1.0 10.0 50.0 75.0 100.0 200.0 250.0 350.0 450.0 500.0 -s dynamic --aggregation-scheme PRIVATE -d DOTA2 -e normal --rabbitmq-host s876cn01'
docker run -e constraint:s876node==s876cn07 -c 16 -m 200G -it -d -u $(id -u):$(id -g) -v ${SRC_DIR}:/data/src:ro -v ${OUT_DIR}:/data/out -v ${IN_DIR}:/data/in:ro --name heppe-dynamic-private-susy-periodic-rc s876cnsm:5000/heppe/dlplatform:0.5  /bin/bash -c 'cd /data/src && /usr/bin/python3 experiments/iid_experiment.py -r /data/in -o /data/out     --nodes 16 -p 20 -b 10 -m 1500 --budget 10 -t 10.0 25.0 50.0 75.0 100.0 150.0 200.0 250.0 350.0 450.0 500.0 -s dynamic --aggregation-scheme PRIVATE -d DOTA2 -e rc     --rabbitmq-host s876cn09'

# Periodic, nosync
docker run -e constraint:s876node==s876gn01 -c 13 -m 250G -it -d -u $(id -u):$(id -g) -v ${SRC_DIR}:/data/src:ro -v ${OUT_DIR}:/data/out -v ${IN_DIR}:/data/in:ro --name heppe-dynamic-private-covertype-periodic-normal s876cnsm:5000/heppe/dlplatform:0.5  /bin/bash -c 'cd /data/src && /usr/bin/python3 experiments/iid_experiment.py -r /data/in -o /data/out --nodes 16 -p 1 2 3 4 5 6 7 8 9 10 20 50 100 200 -b 10 -m 1500 --budget 10 -s periodic nosync --aggregation-scheme PRIVATE -d DOTA2 -e normal --rabbitmq-host s876gn03'
docker run -e constraint:s876node==s876cn03 -c 16 -m 200G -it -d -u $(id -u):$(id -g) -v ${SRC_DIR}:/data/src:ro -v ${OUT_DIR}:/data/out -v ${IN_DIR}:/data/in:ro --name heppe-dynamic-private-covertype-periodic-rc s876cnsm:5000/heppe/dlplatform:0.5  /bin/bash -c 'cd /data/src && /usr/bin/python3 experiments/iid_experiment.py -r /data/in -o /data/out     --nodes 16 -p 1 2 3 4 5 6 7 8 9 10 20 50 100 200 -b 10 -m 1500 --budget 10 -s periodic nosync --aggregation-scheme PRIVATE -d DOTA2 -e rc     --rabbitmq-host s876cn03'


####

docker run -e constraint:s876node==s876cn01 -c 16 -m 250G -it -d -u $(id -u):$(id -g) -v ${SRC_DIR}:/data/src:ro -v ${OUT_DIR}:/data/out -v ${IN_DIR}:/data/in:ro --name heppe-dynamic-private-susy-periodic-normal s876cnsm:5000/heppe/dlplatform:0.5  /bin/bash -c 'cd /data/src && /usr/bin/python3 experiments/iid_experiment.py -r /data/in -o /data/out --nodes 16 -p 20 -b 10 -m 1500 --budget 10 -t 0.1 0.5 1.0 10.0 50.0 75.0 100.0 200.0 250.0 350.0 450.0 500.0 -s dynamic --aggregation-scheme PRIVATE -d DOTA2 -e normal --rabbitmq-host s876cn01'
docker run -e constraint:s876node==s876cn07 -c 16 -m 200G -it -d -u $(id -u):$(id -g) -v ${SRC_DIR}:/data/src:ro -v ${OUT_DIR}:/data/out -v ${IN_DIR}:/data/in:ro --name heppe-dynamic-private-susy-periodic-rc s876cnsm:5000/heppe/dlplatform:0.5  /bin/bash -c 'cd /data/src && /usr/bin/python3 experiments/iid_experiment.py -r /data/in -o /data/out     --nodes 16 -p 20 -b 10 -m 1500 --budget 10 -t 10.0 25.0 50.0 75.0 100.0 150.0 200.0 250.0 350.0 450.0 500.0 -s dynamic --aggregation-scheme PRIVATE -d DOTA2 -e rc     --rabbitmq-host s876cn09'

# Periodic, nosync for all datasets
docker run -e constraint:s876node==s876gn01 -c 13 -m 250G -it -d -u $(id -u):$(id -g) -v ${SRC_DIR}:/data/src:ro -v ${OUT_DIR}:/data/out -v ${IN_DIR}:/data/in:ro --name heppe-dynamic-private-covertype-periodic-normal s876cnsm:5000/heppe/dlplatform:0.5  /bin/bash -c 'cd /data/src && /usr/bin/python3 experiments/iid_experiment.py -r /data/in -o /data/out --nodes 16 -p 1 2 3 4 5 6 7 8 9 10 20 50 100 200 -b 10 -m 1500 --budget 10 -s periodic nosync --aggregation-scheme PUBLIC -e normal --rabbitmq-host s876gn03' # -d DOTA2
docker run -e constraint:s876node==s876cn03 -c 16 -m 200G -it -d -u $(id -u):$(id -g) -v ${SRC_DIR}:/data/src:ro -v ${OUT_DIR}:/data/out -v ${IN_DIR}:/data/in:ro --name heppe-dynamic-private-covertype-periodic-rc s876cnsm:5000/heppe/dlplatform:0.5  /bin/bash -c 'cd /data/src && /usr/bin/python3 experiments/iid_experiment.py -r /data/in -o /data/out     --nodes 16 -p 1 2 3 4 5 6 7 8 9 10 20 50 100 200 -b 10 -m 1500 --budget 10 -s periodic nosync --aggregation-scheme PUBLIC -e rc     --rabbitmq-host s876cn03' # -d DOTA2

# Dynamic PUBLIC for all datasets
docker run -e constraint:s876node==s876cn01 -c 16 -m 250G -it -d -u $(id -u):$(id -g) -v ${SRC_DIR}:/data/src:ro -v ${OUT_DIR}:/data/out -v ${IN_DIR}:/data/in:ro --name heppe-dynamic-private-susy-periodic-normal s876cnsm:5000/heppe/dlplatform:0.5  /bin/bash -c 'cd /data/src && /usr/bin/python3 experiments/iid_experiment.py -r /data/in -o /data/out --nodes 16 -p 20 -b 10 -m 1500 --budget 10 -t 0.1 0.5 1.0 10.0 50.0 75.0 100.0 200.0 250.0 350.0 450.0 500.0 -s dynamic --aggregation-scheme PUBLIC -e normal --rabbitmq-host s876cn01'
docker run -e constraint:s876node==s876cn07 -c 16 -m 200G -it -d -u $(id -u):$(id -g) -v ${SRC_DIR}:/data/src:ro -v ${OUT_DIR}:/data/out -v ${IN_DIR}:/data/in:ro --name heppe-dynamic-private-susy-periodic-rc s876cnsm:5000/heppe/dlplatform:0.5  /bin/bash -c 'cd /data/src && /usr/bin/python3 experiments/iid_experiment.py -r /data/in -o /data/out     --nodes 16 -p 20 -b 10 -m 1500 --budget 10 -t 10.0 25.0 50.0 75.0 100.0 150.0 200.0 250.0 350.0 450.0 500.0  -s dynamic --aggregation-scheme PUBLIC -e rc     --rabbitmq-host s876cn09'


# PRIVATE MISSING DELTAS
docker run -e constraint:s876node==s876cn01 -c 16 -m 250G -it -d -u $(id -u):$(id -g) -v ${SRC_DIR}:/data/src:ro -v ${OUT_DIR}:/data/out -v ${IN_DIR}:/data/in:ro --name heppe-dynamic-private-susy-periodic-normal s876cnsm:5000/heppe/dlplatform:0.5  /bin/bash -c 'cd /data/src && /usr/bin/python3 experiments/iid_experiment.py -r /data/in -o /data/out --nodes 16 -p 20 -b 10 -m 1500 --budget 10 -t 0.1 0.5 1.0 10.0 50.0 75.0 100.0 200.0 250.0 350.0 450.0 500.0 750.0 1000.0 1250.0 1500.0 -s dynamic --aggregation-scheme PRIVATE -d DOTA2 -e normal --rabbitmq-host s876cn01'
docker run -e constraint:s876node==s876cn07 -c 16 -m 200G -it -d -u $(id -u):$(id -g) -v ${SRC_DIR}:/data/src:ro -v ${OUT_DIR}:/data/out -v ${IN_DIR}:/data/in:ro --name heppe-dynamic-private-susy-periodic-rc s876cnsm:5000/heppe/dlplatform:0.5  /bin/bash -c 'cd /data/src && /usr/bin/python3 experiments/iid_experiment.py -r /data/in -o /data/out     --nodes 16 -p 20 -b 10 -m 1500 --budget 10 -t 10.0 25.0 50.0 75.0 100.0 150.0 200.0 250.0 350.0 450.0 500.0 750.0 1000.0 1250.0 1500.0 1750.0 2000.0 2250.0 2500.0 -s dynamic --aggregation-scheme PRIVATE -d DOTA2 -e rc     --rabbitmq-host s876cn09'

docker run -e constraint:s876node==s876cn03 -c 16 -m 200G -it -d -u $(id -u):$(id -g) -v ${SRC_DIR}:/data/src:ro -v ${OUT_DIR}:/data/out -v ${IN_DIR}:/data/in:ro --name heppe-dynamic-private-covertype-periodic-rc s876cnsm:5000/heppe/dlplatform:0.5  /bin/bash -c 'cd /data/src && /usr/bin/python3 experiments/iid_experiment.py -r /data/in -o /data/out     --nodes 16 -p 20 -b 10 -m 1500 -t 1750.0 2000.0 2250.0 2500.0 --budget 10 -s dynamic --aggregation-scheme PRIVATE -e rc  -d COVERTYPE   --rabbitmq-host s876cn03' # -d DOTA2
docker run -e constraint:s876node==s876gn01 -c 13 -m 250G -it -d -u $(id -u):$(id -g) -v ${SRC_DIR}:/data/src:ro -v ${OUT_DIR}:/data/out -v ${IN_DIR}:/data/in:ro --name heppe-dynamic-private-covertype-periodic-normal s876cnsm:5000/heppe/dlplatform:0.5  /bin/bash -c 'cd /data/src && /usr/bin/python3 experiments/iid_experiment.py -r /data/in -o /data/out --nodes 16 -p 20 -b 10 -m 1500 --budget 10 -t 600.0 700.0 800.0 900.0 1000.0 -s dynamic --aggregation-scheme PRIVATE -d SUSY -e normal --rabbitmq-host s876gn03'


####
docker10 run -it -d -u $(id -u):$(id -g) -v ${SRC_DIR}:/data/src:ro -v ${OUT_DIR}:/data/out -v ${IN_DIR}:/data/in:ro --name heppe-dynamic-private-susy-periodic-normal s876cnsm:5000/heppe/dlplatform:0.5                                        /bin/bash -c 'cd /data/src && /usr/bin/python3 experiments/iid_experiment.py -r /data/in -o /data/out --nodes 16 -p 20 -b 10 -m 1500 --budget 10 -t 1.0 10.0 50.0 75.0 100.0 200.0 250.0 350.0 450.0 500.0 750.0 1000.0 1250.0 1500.0 1750.0 200.0 -s dynamic --aggregation-scheme PUBLIC -e rc --rabbitmq-host s876cn10'
docker10 run -it -d -u $(id -u):$(id -g) -v ${SRC_DIR}:/data/src:ro -v ${OUT_DIR}:/data/out -v ${IN_DIR}:/data/in:ro --name heppe-dynamic-public-dynamic-normal-cn10 s876cnsm:5000/heppe/dlplatform:0.5  /bin/bash -c 'cd /data/src && /usr/bin/python3 experiments/iid_experiment.py -r /data/in -o /data/out --nodes 16 -p 20 -b 10 -m 1500 --budget 10 -t 1.0 10.0 50.0 75.0 100.0 200.0 250.0 350.0 450.0 500.0 750.0 1000.0 1250.0 1500.0 1750.0 200.0 -s dynamic --aggregation-scheme PUBLIC -e normal --rabbitmq-host s876cn10'

docker run -e constraint:s876node==s876cn07 -c 16 -m 200G -it -d -u $(id -u):$(id -g) -v ${SRC_DIR}:/data/src:ro -v ${OUT_DIR}:/data/out -v ${IN_DIR}:/data/in:ro --name heppe-dynamic-private-susy-periodic-rc s876cnsm:5000/heppe/dlplatform:0.5         /bin/bash -c 'cd /data/src && /usr/bin/python3 experiments/iid_experiment.py -r /data/in -o /data/out     --nodes 16 -p 1 2 3 4 5 6 7 8 9 10 20 50 100 200 -b 10 -m 1500 --budget 10 -s periodic --aggregation-scheme CENTRALIZED -e rc      --rabbitmq-host s876cn09'
docker run -e constraint:s876node==s876cn03 -c 16 -m 200G -it -d -u $(id -u):$(id -g) -v ${SRC_DIR}:/data/src:ro -v ${OUT_DIR}:/data/out -v ${IN_DIR}:/data/in:ro --name heppe-dynamic-private-susy-periodic-rc-center s876cnsm:5000/heppe/dlplatform:0.5  /bin/bash -c 'cd /data/src && /usr/bin/python3 experiments/iid_experiment.py -r /data/in -o /data/out     --nodes 16 -p 1 2 3 4 5 6 7 8 9 10 20 50 100 200 -b 10 -m 1500 --budget 10 -s periodic --aggregation-scheme CENTRALIZED -e normal  --rabbitmq-host s876cn03'


# TODO: CENTRALIZED DYNAMIC
docker run -e constraint:s876node==s876gn01 -c 13 -m 250G -it -d -u $(id -u):$(id -g) -v ${SRC_DIR}:/data/src:ro -v ${OUT_DIR}:/data/out -v ${IN_DIR}:/data/in:ro --name heppe-dynamic-centralized-rc s876cnsm:5000/heppe/dlplatform:0.5     /bin/bash -c 'cd /data/src && /usr/bin/python3 experiments/iid_experiment.py -r /data/in -o /data/out     --nodes 16 -p 20 -b 10 -m 1500 --budget 10 -t 0.1 0.25 0.5 0.75 1.0 5.0 10.0 -s dynamic --aggregation-scheme CENTRALIZED -e rc --rabbitmq-host s876gn03'
docker run -e constraint:s876node==s876cn09 -c 18 -m 250G  -it -d -u $(id -u):$(id -g) -v ${SRC_DIR}:/data/src:ro -v ${OUT_DIR}:/data/out -v ${IN_DIR}:/data/in:ro --name heppe-dynamic-centralized-normal s876cnsm:5000/heppe/dlplatform:0.5 /bin/bash -c 'cd /data/src && /usr/bin/python3 experiments/iid_experiment.py -r /data/in -o /data/out     --nodes 16 -p 20 -b 10 -m 1500 --budget 10 -t 0.1 0.25 0.5 0.75 1.0 5.0 10.0 -s dynamic --aggregation-scheme CENTRALIZED -e normal --rabbitmq-host s876cn08'

docker run -e constraint:s876node==s876cn03 -c 16 -m 200G -it -d -u $(id -u):$(id -g) -v ${SRC_DIR}:/data/src:ro -v ${OUT_DIR}:/data/out -v ${IN_DIR}:/data/in:ro --name heppe-dynamic-private-dota2-rc-HIGH-DELTA s876cnsm:5000/heppe/dlplatform:0.5         /bin/bash -c 'cd /data/src && /usr/bin/python3 experiments/iid_experiment.py -r /data/in -o /data/out     --nodes 16 -p 20 -b 10 -m 1500 --budget 10 -s dynamic -t 2750.0 3000.0 3250.0 3500.0 --aggregation-scheme PUBLIC -d DOTA2 -e rc      --rabbitmq-host s876cn03'

###### HIGH BUDGET ######


#### High budet

### COVERTYPE
# Periodic
docker run -e constraint:s876node==s876gn01 -c 13 -m 250G -it -d -u $(id -u):$(id -g) -v ${SRC_DIR}:/data/src:ro -v ${OUT_DIR}:/data/out -v ${IN_DIR}:/data/in:ro --name heppe-dynamic-private-covertype-periodic-normal s876cnsm:5000/heppe/dlplatform:0.5  /bin/bash -c 'cd /data/src && /usr/bin/python3 experiments/iid_experiment.py -r /data/in -o /data/out --nodes 16 -p 1 10 20 100 -b 10 -m 1500 -t 0.0 -s periodic --aggregation-scheme PRIVATE -d COVERTYPE --budget 1000 -e normal --rabbitmq-host s876gn03'
docker run -e constraint:s876node==s876cn03 -c 16 -m 200G -it -d -u $(id -u):$(id -g) -v ${SRC_DIR}:/data/src:ro -v ${OUT_DIR}:/data/out -v ${IN_DIR}:/data/in:ro --name heppe-dynamic-private-covertype-periodic-rc     s876cnsm:5000/heppe/dlplatform:0.5  /bin/bash -c 'cd /data/src && /usr/bin/python3 experiments/iid_experiment.py -r /data/in -o /data/out --nodes 16 -p 1 10 20 100 -b 10 -m 1500 -t 0.0 -s periodic --aggregation-scheme PRIVATE -d COVERTYPE --budget 1000 -e rc --rabbitmq-host s876cn03'
# Dynamic
docker run -e constraint:s876node==s876cn09 -c 18 -m 250G -it -d -u $(id -u):$(id -g) -v ${SRC_DIR}:/data/src:ro -v ${OUT_DIR}:/data/out -v ${IN_DIR}:/data/in:ro --name heppe-dynamic-private-covertype-periodic-normal-dyn s876cnsm:5000/heppe/dlplatform:0.5  /bin/bash -c 'cd /data/src && /usr/bin/python3 experiments/iid_experiment.py -r /data/in -o /data/out --nodes 16 -p 20 -b 10 -m 1500 -t 1.0 10.0 100.0 500.0 -s dynamic --aggregation-scheme PRIVATE -d COVERTYPE --budget 1000 -e normal --rabbitmq-host s876cn09'
docker run -e constraint:s876node==s876cn07 -c 16 -m 200G -it -d -u $(id -u):$(id -g) -v ${SRC_DIR}:/data/src:ro -v ${OUT_DIR}:/data/out -v ${IN_DIR}:/data/in:ro --name heppe-dynamic-private-covertype-periodic-rcxsas     s876cnsm:5000/heppe/dlplatform:0.5  /bin/bash -c 'cd /data/src && /usr/bin/python3 experiments/iid_experiment.py -r /data/in -o /data/out --nodes 16 -p 20 -b 10 -m 1500 -t 1.0 10.0 100.0 500.0 -s dynamic --aggregation-scheme PRIVATE -d COVERTYPE --budget 1000 -e rc --rabbitmq-host s876cn08'


# Nosync
docker run -e constraint:s876node==s876gn01 -c 13 -m 250G -it -d -u $(id -u):$(id -g) -v ${SRC_DIR}:/data/src:ro -v ${OUT_DIR}:/data/out -v ${IN_DIR}:/data/in:ro --name heppe-dynamic-private-covertype-periodic-normal s876cnsm:5000/heppe/dlplatform:0.5  /bin/bash -c 'cd /data/src && /usr/bin/python3 experiments/iid_experiment.py -r /data/in -o /data/out --nodes 16 -p 1 10 20 100 -b 10 -m 1500 -t 0.0 -s periodic nosync --aggregation-scheme PRIVATE -d COVERTYPE --budget 1000 -e normal --rabbitmq-host s876gn03'
docker10 run -it -d -u $(id -u):$(id -g) -v ${SRC_DIR}:/data/src:ro -v ${OUT_DIR}:/data/out -v ${IN_DIR}:/data/in:ro --name heppe-dynamic-private-covertype-periodic-rc-cn01     s876cnsm:5000/heppe/dlplatform:0.5  /bin/bash -c 'cd /data/src && /usr/bin/python3 experiments/iid_experiment.py -r /data/in -o /data/out --nodes 16 -p 1 10 20 100 -b 10 -m 1500 -t 0.0 -s periodic nosync --aggregation-scheme PRIVATE -d COVERTYPE --budget 1000 -e rc --rabbitmq-host s876cn10'

################## PUBLIC RC wird neu benötigt.

1Container für periodic, and nosync

Pro Datensatz 1 Container

docker10 run -it -d -u $(id -u):$(id -g) -v ${SRC_DIR}:/data/src:ro -v ${OUT_DIR}:/data/out -v ${IN_DIR}:/data/in:ro --name heppe-dynamic-rc-public-periodic-nosync s876cnsm:5000/heppe/dlplatform:0.5     /bin/bash -c 'cd /data/src && /usr/bin/python3 experiments/iid_experiment.py -r /data/in -o /data/out --nodes 16 -p 1 2 5 10 20 50 -b 10 -m 1500 --budget 10 -t 0.0 -s periodic nosync --aggregation-scheme PUBLIC -e rc --rabbitmq-host s876cn10'

# COVERTYPE dynamic
docker run -e constraint:s876node==s876gn01 -c 13 -m 250G -it -d -u $(id -u):$(id -g) -v ${SRC_DIR}:/data/src:ro -v ${OUT_DIR}:/data/out -v ${IN_DIR}:/data/in:ro --name heppe-dynamic-rc-public-covertype s876cnsm:5000/heppe/dlplatform:0.5  /bin/bash -c 'cd /data/src && /usr/bin/python3 experiments/iid_experiment.py -r /data/in -o /data/out --nodes 16 -p 20 -b 10 -m 1500 -t 10.0 100.0 250.0 500.0 750.0 1000.0 1250.0 1500.0 1750.0 2000.0 2500.0 -s dynamic --aggregation-scheme PUBLIC -d COVERTYPE --budget 10 -e rc --rabbitmq-host s876gn03'
docker run -e constraint:s876node==s876cn07 -c 16 -m 200G -it -d -u $(id -u):$(id -g) -v ${SRC_DIR}:/data/src:ro -v ${OUT_DIR}:/data/out -v ${IN_DIR}:/data/in:ro --name heppe-dynamic-rc-public-susy s876cnsm:5000/heppe/dlplatform:0.5       /bin/bash -c 'cd /data/src && /usr/bin/python3 experiments/iid_experiment.py -r /data/in -o /data/out --nodes 16 -p 20 -b 10 -m 1500 -t 10.0 100.0 250.0 500.0 750.0 1000.0 1250.0 1500.0 1750.0 2000.0 2500.0 -s dynamic --aggregation-scheme PUBLIC -d SUSY --budget 10 -e rc --rabbitmq-host s876cn09'
docker10 run -it -d -u $(id -u):$(id -g) -v ${SRC_DIR}:/data/src:ro -v ${OUT_DIR}:/data/out -v ${IN_DIR}:/data/in:ro --name heppe-dynamic-rc-public-susy s876cnsm:5000/heppe/dlplatform:0.5       /bin/bash -c 'cd /data/src && /usr/bin/python3 experiments/iid_experiment.py -r /data/in -o /data/out --nodes 16 -p 20 -b 10 -m 1500 -t 10.0 100.0 250.0 500.0 750.0 1000.0 1250.0 1500.0 1750.0 2000.0 2500.0 2750.0 3000.0 3500.0 -s dynamic --aggregation-scheme PUBLIC -d DOTA2 --budget 10 -e rc --rabbitmq-host s876cn10'


# HIGH BUDGET
# PRIVATE
# Periodic and nosync
docker run -e constraint:s876node==s876cn01 -c 16 -m 250G -it -d -u $(id -u):$(id -g) -v ${SRC_DIR}:/data/src:ro -v ${OUT_DIR}:/data/out -v ${IN_DIR}:/data/in:ro --name heppe-dynamic-rc-perodic_nosync-rc     s876cnsm:5000/heppe/dlplatform:0.5  /bin/bash -c 'cd /data/src && /usr/bin/python3 experiments/iid_experiment.py -r /data/in -o /data/out -e normal --aggregation-scheme PRIVATE --nodes 16 -p 1 5 10 20 50 --budget 1000 -b 10 -m 1500 --rabbitmq-host s876cn01'
docker run -e constraint:s876node==s876cn03 -c 17 -m 170G -it -d -u $(id -u):$(id -g) -v ${SRC_DIR}:/data/src:ro -v ${OUT_DIR}:/data/out -v ${IN_DIR}:/data/in:ro --name heppe-dynamic-rc-perodic_nosync-normal s876cnsm:5000/heppe/dlplatform:0.5  /bin/bash -c 'cd /data/src && /usr/bin/python3 experiments/iid_experiment.py -r /data/in -o /data/out -e rc     --aggregation-scheme PRIVATE --nodes 16 -p 1 5 10 20 50 --budget 1000 -b 10 -m 1500 --rabbitmq-host s876cn03'

docker run -e constraint:s876node==s876cn08 -c 14 -m 150G -it -d -u $(id -u):$(id -g) -v ${SRC_DIR}:/data/src:ro -v ${OUT_DIR}:/data/out -v ${IN_DIR}:/data/in:ro --name heppe-dynamic-rc-perodic_nosync-normal-dynamic     s876cnsm:5000/heppe/dlplatform:0.5  /bin/bash -c 'cd /data/src && /usr/bin/python3 experiments/iid_experiment.py -r /data/in -o /data/out -e normal -s dynamic --aggregation-scheme PRIVATE -t 5.0 10.0    --nodes 16 -p 20 --budget 1000 -b 10 -m 1500 --rabbitmq-host s876cn08'
docker run -e constraint:s876node==s876cn07 -c 18 -m 150G -it -d -u $(id -u):$(id -g) -v ${SRC_DIR}:/data/src:ro -v ${OUT_DIR}:/data/out -v ${IN_DIR}:/data/in:ro --name heppe-dynamic-rc-perodic_nosync-rc-dynamic         s876cnsm:5000/heppe/dlplatform:0.5  /bin/bash -c 'cd /data/src && /usr/bin/python3 experiments/iid_experiment.py -r /data/in -o /data/out -e rc     -s dynamic --aggregation-scheme PRIVATE -t 50.0 100.0 500.0 --nodes 16 -p 20 --budget 1000 -b 10 -m 1500 --rabbitmq-host s876cn07'

